%YAML 1.1
%TAG !u! tag:unity3d.com,2011:
--- !u!114 &11400000
MonoBehaviour:
  m_ObjectHideFlags: 0
  m_CorrespondingSourceObject: {fileID: 0}
  m_PrefabInstance: {fileID: 0}
  m_PrefabAsset: {fileID: 0}
  m_GameObject: {fileID: 0}
  m_Enabled: 1
  m_EditorHideFlags: 0
  m_Script: {fileID: 11500000, guid: 46a60567e3efd8d42a535213fb7dfc0a, type: 3}
  m_Name: Archer
  m_EditorClassIdentifier: 
  _name: Archer
  _tier: 1
  _prefab: {fileID: 1790879803183847824, guid: 3d62a0cd2af66cd41b3749740ef25be1, type: 3}
  _gold: 105
  _fame: 50
