%YAML 1.1
%TAG !u! tag:unity3d.com,2011:
--- !u!114 &11400000
MonoBehaviour:
  m_ObjectHideFlags: 0
  m_CorrespondingSourceObject: {fileID: 0}
  m_PrefabInstance: {fileID: 0}
  m_PrefabAsset: {fileID: 0}
  m_GameObject: {fileID: 0}
  m_Enabled: 1
  m_EditorHideFlags: 0
  m_Script: {fileID: 11500000, guid: 46a60567e3efd8d42a535213fb7dfc0a, type: 3}
  m_Name: Gladiator
  m_EditorClassIdentifier: 
  _name: Gladiator
  _tier: 0
  _prefab: {fileID: 648049319794265016, guid: 3677f9cef5250854297427450d27249a, type: 3}
  _gold: 35
  _fame: 25
